<?xml version="1.0" encoding="UTF-8" standalone="no"?>
<svg viewBox="0 0 460 460" version="1.1" xmlns="http://www.w3.org/2000/svg">
  <rect width="420" height="420" x="22" y="22" rx="5" ry="5" fill="#999" />
  <ellipse cx="229" cy="230" rx="205" ry="205" fill="#bbb" />
  <rect width="31" height="154" x="408" y="153" rx="5" ry="5" fill="#bbb" />
  <ellipse cx="229" cy="230" rx="153" ry="153" fill="#aaa" />

  <mask id="a">
    <rect width="100%" height="100%" x="0" y="0" fill="white" />
    <rect width="410" height="410" x="24" y="25" rx="5" ry="5" fill="black" />
    <rect width="31" height="154" x="408" y="153" rx="5" ry="5" fill="black" />
  </mask>
  <rect width="450" height="450" x="4" y="5" rx="25" ry="25" mask="url(#a)" />

  <mask id="b">
    <rect width="100%" height="100%" x="0" y="0" fill="white" />
    <rect width="31" height="154" x="408" y="153" rx="5" ry="5" fill="black" />
  </mask>
  <rect width="71" height="194" x="388" y="133" rx="25" ry="25" mask="url(#b)" />

  <mask id="c">
    <rect width="100%" height="100%" x="0" y="0" fill="white" />
    <ellipse cx="229" cy="230" rx="205" ry="205" fill="black" />
    <rect width="31" height="154" x="408" y="153" rx="5" ry="5" fill="black" />
  </mask>
  <ellipse cx="229" cy="230" rx="225" ry="225" mask="url(#c)" />

  <mask id="d">
    <rect width="100%" height="100%" x="0" y="0" fill="white" />
    <ellipse cx="229" cy="230" rx="153" ry="153" fill="black" />
  </mask>
  <ellipse cx="229" cy="230" rx="173" ry="173" mask="url(#d)" />

  <g transform="translate(55 20)">
    <path d="m 173.92845,84.555278 24.91919,58.200582 c 5.48561,12.77738 17.49364,21.44056 31.37479,22.5778 l 63.151,5.21801 -47.43012,40.2052 c -10.83736,9.19837 -15.52016,23.48091 -12.20876,37.29519 l 14.44981,60.4751 -55.08986,-32.71275 c -5.78661,-3.44521 -12.40944,-5.25144 -19.13261,-5.25144 -6.72319,0 -13.34599,1.80623 -19.13261,5.25144 l -55.156748,32.7462 14.449798,-60.50855 c 3.31141,-13.81428 -1.3714,-28.09682 -12.20875,-37.29519 l -47.463569,-40.17176 63.150959,-5.21798 c 13.84774,-1.13727 25.88926,-9.80046 31.37481,-22.57783 l 24.95267,-58.234022 m 0,-45.055278 c -4.58246,0 -9.16493,2.475196 -11.27217,7.45904 l -36.86038,85.89603 c -1.77277,4.18107 -5.75316,7.02419 -10.26873,7.39214 l -94.191281,7.79353 c -10.904247,0.90312 -15.2860142,14.55014 -6.923863,21.60781 l 71.212088,60.3413 c 3.512107,3.01036 5.084191,7.72662 4.013836,12.20873 l -21.540905,90.17745 c -1.97347,8.22833 4.54901,15.15221 11.941153,15.15221 2.073813,0 4.214524,-0.53517 6.254892,-1.77275 l 81.38048,-48.33327 c 1.94001,-1.13724 4.11417,-1.73932 6.28832,-1.73932 2.17416,0 4.34832,0.56863 6.28834,1.73932 l 81.31359,48.29979 c 2.04036,1.20416 4.18104,1.77279 6.25486,1.77279 7.39215,0 13.91463,-6.92386 11.94116,-15.15225 l -21.54091,-90.11053 c -1.07033,-4.51555 0.46828,-9.23181 4.01385,-12.20873 l 71.24551,-60.37474 c 8.36215,-7.0911 3.98041,-20.70469 -6.92384,-21.60781 l -94.22474,-7.76009 c -4.54904,-0.36793 -8.49595,-3.21105 -10.26873,-7.39213 L 185.26752,46.992487 C 183.09336,41.975196 178.5109,39.5 173.92845,39.5 Z" />
  </g>

  <g transform="translate(55 20)">
    <path d="m 173.92845,84.555282 24.91919,58.200578 c 5.48561,12.77738 17.49364,21.44056 31.37479,22.5778 l 63.151,5.21801 -47.43012,40.2052 c -10.83736,9.19837 -15.52016,23.48091 -12.20876,37.29519 l 14.44981,60.4751 -55.08986,-32.71275 c -5.7906,-3.4385 -12.40944,-5.25144 -19.13261,-5.25144 -6.72319,0 -13.34171,1.81342 -19.13261,5.25144 l -55.156739,32.7462 14.449789,-60.50855 c 3.29961,-13.8171 -1.3714,-28.09682 -12.20875,-37.29519 l -47.463569,-40.17176 63.150959,-5.21798 c 13.84774,-1.13727 25.88926,-9.80046 31.37481,-22.57783 l 24.95267,-58.234018" fill="#FC0" />
  </g>

</svg>
